<?xml version="1.0" encoding="UTF-8"?>
<svg width="13px" height="20px" viewBox="0 0 13 20" version="1.1" xmlns="http://www.w3.org/2000/svg" xmlns:xlink="http://www.w3.org/1999/xlink">
    <title>521CE14B-D220-4ECC-B0F0-69FCA34ADE6D@2x</title>
    <g id="User" stroke="none" stroke-width="1" fill="none" fill-rule="evenodd" stroke-linecap="round" stroke-linejoin="round">
        <g id="Jobs-Web-(User)-1-3" transform="translate(-446.000000, -614.000000)" stroke="#2C3642" stroke-width="1.5">
            <g id="Card" transform="translate(180.000000, 141.000000)">
                <g id="-Cards-1" transform="translate(0.000000, 102.000000)">
                    <g id="Apply" transform="translate(11.000000, 60.000000)">
                        <g id="Group-3" transform="translate(9.000000, 117.000000)">
                            <g id="Elements-/-Text-/-Text&amp;Icon-/-Left/2" transform="translate(84.317829, 192.000000)">
                                <g id="Group-11" transform="translate(162.682171, 3.000000)">
                                    <path d="M7.5,14 L7.5,6 C7.5,4.894 6.606,3.996 5.5,3.99197929 L5.5,3.99197929 C4.388,3.987 3.483,4.888 3.483,6 L3.483,13" id="Stroke-1"></path>
                                    <line x1="0.5" y1="5" x2="0.5" y2="14.048" id="Stroke-3"></line>
                                    <line x1="10.5" y1="5" x2="10.5" y2="12" id="Stroke-5"></line>
                                    <path d="M7.5,14 L7.5,14.5 C7.5,16.433 5.933,18 4,18 L4,18 C2.067,18 0.5,16.433 0.5,14.5 L0.5,14" id="Stroke-7"></path>
                                    <path d="M10.5,5 L10.5,5 C10.5,2.239 8.261,0 5.5,0 L5.5,0 C2.739,0 0.5,2.239 0.5,5 L0.5,5" id="Stroke-9"></path>
                                </g>
                            </g>
                        </g>
                    </g>
                </g>
            </g>
        </g>
    </g>
</svg>