<?xml version="1.0" encoding="UTF-8"?>
<svg width="18px" height="18px" viewBox="0 0 18 18" version="1.1" xmlns="http://www.w3.org/2000/svg" xmlns:xlink="http://www.w3.org/1999/xlink">
    <title>CFB892E1-2044-4DD2-902C-F23DC5E56034@2x</title>
    <g id="User" stroke="none" stroke-width="1" fill="none" fill-rule="evenodd" stroke-linecap="round" stroke-linejoin="round">
        <g id="Jobs-Web-(User)-1-1" transform="translate(-883.000000, -607.000000)" stroke="#4A4A4A" stroke-width="1.5">
            <g id="Hero" transform="translate(-31.000000, 80.000000)">
                <g id="Group-4" transform="translate(895.000000, 94.000000)">
                    <g id="Button/-Secondary/-Disabled-Copy-4" transform="translate(0.000000, 418.000000)">
                        <g id="Elements-/-Text-/-Text&amp;Icon-/-Left/2" transform="translate(16.000000, 12.000000)">
                            <g id="Group-5" transform="translate(4.000000, 4.000000)">
                                <path d="M11.942,5.971 C11.942,9.269 9.269,11.942 5.971,11.942 C2.673,11.942 0,9.269 0,5.971 C0,2.673 2.673,0 5.971,0 C9.269,0 11.942,2.673 11.942,5.971 Z" id="Stroke-1"></path>
                                <line x1="10.1553" y1="10.2299" x2="16.0003" y2="16.1569" id="Stroke-3"></line>
                            </g>
                        </g>
                    </g>
                </g>
            </g>
        </g>
    </g>
</svg>